%YAML 1.1
%TAG !u! tag:unity3d.com,2011:
--- !u!114 &11400000
MonoBehaviour:
  m_ObjectHideFlags: 0
  m_CorrespondingSourceObject: {fileID: 0}
  m_PrefabInstance: {fileID: 0}
  m_PrefabAsset: {fileID: 0}
  m_GameObject: {fileID: 0}
  m_Enabled: 1
  m_EditorHideFlags: 0
  m_Script: {fileID: 11500000, guid: c541b6e2a0030fc42a05484ac9d3295d, type: 3}
  m_Name: SeaweedSword
  m_EditorClassIdentifier: 
  Name: Seaweed Sword
  Description: AKA The Nori Sword AKA The Salty Slicer
  BaseDamage: 7
  BaseFireRate: 2
  BaseRange: 6
  BaseSizeModifier: 0
  BaseExtraProjectiles: 0
  BaseEnemyPierce: 0
  _levelUpInfo:
    _upgradeTiers:
    - _upgrades: 0000000000000000
    - _upgrades: 000000000000000000000000
  WeaponID: 8
  WeaponSprite: {fileID: 21300000, guid: 7be0ffcea78512b4ba9da3eb709e1e0a, type: 3}
  ProjectilePrefab: {fileID: 1472396465202258154, guid: 5fa95a27629dc5a4eb9a32b7a9073131, type: 3}
