%YAML 1.1
%TAG !u! tag:unity3d.com,2011:
--- !u!162 &1
EditorUserSettings:
  m_ObjectHideFlags: 0
  serializedVersion: 4
  m_ConfigSettings:
    RecentlyUsedSceneGuid-0:
      value: 5454035303515c585c5c0d7646200c4443164f2b287b75697a2f4860e0b1376d
      flags: 0
    RecentlyUsedSceneGuid-1:
      value: 535501545305590c545f5e2147205e44404e4c7b7e7b70617a2b4f61e0b2646e
      flags: 0
    RecentlyUsedSceneGuid-2:
      value: 515250075c0c595e5f5a5e71122159444e4e4a2f7a7d7f602f284d66b4b76661
      flags: 0
    RecentlyUsedSceneGuid-3:
      value: 5b09035f07040b5e0f0a557b1176594413164b2b2e7c70697e7e4862e4b73739
      flags: 0
    vcSharedLogLevel:
      value: 0d5e400f0650
      flags: 0
  m_VCAutomaticAdd: 1
  m_VCDebugCom: 0
  m_VCDebugCmd: 0
  m_VCDebugOut: 0
  m_SemanticMergeMode: 2
  m_DesiredImportWorkerCount: 4
  m_StandbyImportWorkerCount: 2
  m_IdleImportWorkerShutdownDelay: 60000
  m_VCShowFailedCheckout: 1
  m_VCOverwriteFailedCheckoutAssets: 1
  m_VCProjectOverlayIcons: 1
  m_VCHierarchyOverlayIcons: 1
  m_VCOtherOverlayIcons: 1
  m_VCAllowAsyncUpdate: 1
  m_ArtifactGarbageCollection: 1
