%YAML 1.1
%TAG !u! tag:unity3d.com,2011:
--- !u!114 &11400000
MonoBehaviour:
  m_ObjectHideFlags: 0
  m_CorrespondingSourceObject: {fileID: 0}
  m_PrefabInstance: {fileID: 0}
  m_PrefabAsset: {fileID: 0}
  m_GameObject: {fileID: 0}
  m_Enabled: 1
  m_EditorHideFlags: 0
  m_Script: {fileID: 11500000, guid: d34fc8074957e314bb7302103da5876a, type: 3}
  m_Name: GoldIncreaseUpgrade
  m_EditorClassIdentifier: 
  Title: Gold Upgrade
  Image: {fileID: 10913, guid: 0000000000000000f000000000000000, type: 0}
  ID: 4
  Cost: 150
